%YAML 1.1
%TAG !u! tag:unity3d.com,2011:
--- !u!1045 &1
EditorBuildSettings:
  m_ObjectHideFlags: 0
  serializedVersion: 2
  m_Scenes:
  - enabled: 0
    path: Assets/Watson/Examples/ServiceExamples/ExampleStreaming.unity
    guid: fa05990b928deac4bb29a2d554a60b31
  - enabled: 1
    path: Assets/unity-sdk-2.0.0/Examples/ServiceExamples/ExampleStreaming.unity
    guid: 57c7b454bb032a34fa0f938231dba758
